%!PS-Adobe-3.0 EPSF-3.0
%%Title: /home/ashokc/repo/labrepo/notes/capacity/mseplot.eps
%%Creator: matplotlib version 1.4.3, http://matplotlib.org/
%%CreationDate: Wed Jun  3 22:45:45 2015
%%Orientation: portrait
%%BoundingBox: 33 206 578 585
%%EndComments
%%BeginProlog
/mpldict 10 dict def
mpldict begin
/m { moveto } bind def
/l { lineto } bind def
/r { rlineto } bind def
/c { curveto } bind def
/cl { closepath } bind def
/box {
m
1 index 0 r
0 exch r
neg 0 r
cl
} bind def
/clipbox {
box
clip
newpath
} bind def
%!PS-Adobe-3.0 Resource-Font
%%Title: cmmi10
%%Copyright: Copyright (C) 1994, Basil K. Malyshev. All Rights Reserved.012BaKoMa Fonts Collection, Level-B.
%%Creator: Converted from TrueType to type 3 by PPR
25 dict begin
/_d{bind def}bind def
/_m{moveto}_d
/_l{lineto}_d
/_cl{closepath eofill}_d
/_c{curveto}_d
/_sc{7 -1 roll{setcachedevice}{pop pop pop pop pop pop}ifelse}_d
/_e{exec}_d
/FontName /Cmmi10 def
/PaintType 0 def
/FontMatrix[.001 0 0 .001 0 0]def
/FontBBox[-34 -250 1048 750]def
/FontType 3 def
/Encoding [ /m ] def
/FontInfo 10 dict dup begin
/FamilyName (cmmi10) def
/FullName (cmmi10) def
/Notice (Copyright (C) 1994, Basil K. Malyshev. All Rights Reserved.012BaKoMa Fonts Collection, Level-B. ) def
/Weight (Regular) def
/Version (1.1/12-Nov-94) def
/ItalicAngle 0.0 def
/isFixedPitch false def
/UnderlinePosition -133 def
/UnderlineThickness 20 def
end readonly def
/CharStrings 1 dict dup begin
/m{{878 0 27 -10 851 442 _sc
77 17 _m
77 21 77 24 78 26 _c
153 324 _l
157 342 160 359 160 373 _c
160 401 150 416 131 416 _c
110 416 94 403 84 378 _c
74 353 64 322 55 284 _c
55 282 54 280 52 279 _c
50 278 48 278 47 278 _c
35 278 _l
33 278 31 279 29 281 _c
27 283 27 286 27 288 _c
34 317 41 342 48 362 _c
54 382 65 400 79 417 _c
}_e{93 433 110 442 132 442 _c
156 442 178 434 198 418 _c
217 402 227 382 227 358 _c
247 384 270 404 297 419 _c
323 434 352 442 382 442 _c
413 442 440 434 463 418 _c
486 402 498 379 498 349 _c
518 378 542 401 570 417 _c
597 433 627 442 660 442 _c
694 442 722 432 743 414 _c
764 395 775 368 775 334 _c
775 306 768 273 756 235 _c
744 196 729 153 711 105 _c
}_e{701 81 697 61 697 45 _c
697 25 704 15 720 15 _c
746 15 767 29 785 57 _c
802 85 814 115 822 147 _c
824 151 826 153 830 153 _c
842 153 _l
844 153 846 152 848 150 _c
850 148 851 146 851 144 _c
851 143 850 142 850 141 _c
840 103 824 68 802 37 _c
780 5 752 -10 718 -10 _c
694 -10 674 -2 658 13 _c
641 29 633 48 633 72 _c
633 83 635 96 641 111 _c
}_e{659 161 675 205 688 245 _c
700 284 707 319 707 349 _c
707 367 703 383 696 396 _c
688 409 676 416 658 416 _c
622 416 590 404 563 382 _c
536 360 513 330 494 294 _c
492 287 491 282 491 279 _c
427 22 _l
424 12 419 5 411 -1 _c
403 -7 394 -10 385 -10 _c
377 -10 370 -7 364 -3 _c
358 1 355 8 355 17 _c
355 21 355 24 356 26 _c
420 281 _l
426 308 430 331 430 349 _c
}_e{430 367 426 383 418 396 _c
410 409 398 416 380 416 _c
355 416 332 410 312 400 _c
292 389 274 375 259 357 _c
243 339 229 318 217 294 _c
149 22 _l
147 12 142 5 134 -1 _c
126 -7 117 -10 107 -10 _c
99 -10 92 -7 86 -3 _c
80 1 77 8 77 17 _c
_cl}_e}_d
end readonly def

/BuildGlyph
 {exch begin
 CharStrings exch
 2 copy known not{pop /.notdef}if
 true 3 1 roll get exec
 end}_d

/BuildChar {
 1 index /Encoding get exch get
 1 index /BuildGlyph get exec
}_d

FontName currentdict end definefont pop
%!PS-Adobe-3.0 Resource-Font
%%Title: Bitstream Vera Sans
%%Copyright: Copyright (c) 2003 by Bitstream, Inc. All Rights Reserved.
%%Creator: Converted from TrueType to type 3 by PPR
25 dict begin
/_d{bind def}bind def
/_m{moveto}_d
/_l{lineto}_d
/_cl{closepath eofill}_d
/_c{curveto}_d
/_sc{7 -1 roll{setcachedevice}{pop pop pop pop pop pop}ifelse}_d
/_e{exec}_d
/FontName /BitstreamVeraSans-Roman def
/PaintType 0 def
/FontMatrix[.001 0 0 .001 0 0]def
/FontBBox[-183 -236 1287 928]def
/FontType 3 def
/Encoding [ /space /hyphen /period /zero /one /two /three /four /five /colon /E /F /M /S /a /d /e /i /l /n /o /q /r /u /v ] def
/FontInfo 10 dict dup begin
/FamilyName (Bitstream Vera Sans) def
/FullName (Bitstream Vera Sans) def
/Notice (Copyright (c) 2003 by Bitstream, Inc. All Rights Reserved. Bitstream Vera is a trademark of Bitstream, Inc.) def
/Weight (Roman) def
/Version (Release 1.10) def
/ItalicAngle 0.0 def
/isFixedPitch false def
/UnderlinePosition -213 def
/UnderlineThickness 143 def
end readonly def
/CharStrings 25 dict dup begin
/space{318 0 0 0 0 0 _sc
}_d
/hyphen{361 0 49 234 312 314 _sc
49 314 _m
312 314 _l
312 234 _l
49 234 _l
49 314 _l
_cl}_d
/period{318 0 107 0 210 124 _sc
107 124 _m
210 124 _l
210 0 _l
107 0 _l
107 124 _l
_cl}_d
/zero{636 0 66 -13 570 742 _sc
318 664 _m
267 664 229 639 203 589 _c
177 539 165 464 165 364 _c
165 264 177 189 203 139 _c
229 89 267 64 318 64 _c
369 64 407 89 433 139 _c
458 189 471 264 471 364 _c
471 464 458 539 433 589 _c
407 639 369 664 318 664 _c
318 742 _m
399 742 461 709 505 645 _c
548 580 570 486 570 364 _c
570 241 548 147 505 83 _c
461 19 399 -13 318 -13 _c
236 -13 173 19 130 83 _c
87 147 66 241 66 364 _c
66 486 87 580 130 645 _c
173 709 236 742 318 742 _c
_cl}_d
/one{636 0 110 0 544 729 _sc
124 83 _m
285 83 _l
285 639 _l
110 604 _l
110 694 _l
284 729 _l
383 729 _l
383 83 _l
544 83 _l
544 0 _l
124 0 _l
124 83 _l
_cl}_d
/two{{636 0 73 0 536 742 _sc
192 83 _m
536 83 _l
536 0 _l
73 0 _l
73 83 _l
110 121 161 173 226 239 _c
290 304 331 346 348 365 _c
380 400 402 430 414 455 _c
426 479 433 504 433 528 _c
433 566 419 598 392 622 _c
365 646 330 659 286 659 _c
255 659 222 653 188 643 _c
154 632 117 616 78 594 _c
78 694 _l
118 710 155 722 189 730 _c
223 738 255 742 284 742 _c
}_e{359 742 419 723 464 685 _c
509 647 532 597 532 534 _c
532 504 526 475 515 449 _c
504 422 484 390 454 354 _c
446 344 420 317 376 272 _c
332 227 271 164 192 83 _c
_cl}_e}_d
/three{{636 0 76 -13 556 742 _sc
406 393 _m
453 383 490 362 516 330 _c
542 298 556 258 556 212 _c
556 140 531 84 482 45 _c
432 6 362 -13 271 -13 _c
240 -13 208 -10 176 -4 _c
144 1 110 10 76 22 _c
76 117 _l
103 101 133 89 166 81 _c
198 73 232 69 268 69 _c
330 69 377 81 409 105 _c
441 129 458 165 458 212 _c
458 254 443 288 413 312 _c
383 336 341 349 287 349 _c
}_e{202 349 _l
202 430 _l
291 430 _l
339 430 376 439 402 459 _c
428 478 441 506 441 543 _c
441 580 427 609 401 629 _c
374 649 336 659 287 659 _c
260 659 231 656 200 650 _c
169 644 135 635 98 623 _c
98 711 _l
135 721 170 729 203 734 _c
235 739 266 742 296 742 _c
370 742 429 725 473 691 _c
517 657 539 611 539 553 _c
539 513 527 479 504 451 _c
481 423 448 403 406 393 _c
_cl}_e}_d
/four{636 0 49 0 580 729 _sc
378 643 _m
129 254 _l
378 254 _l
378 643 _l
352 729 _m
476 729 _l
476 254 _l
580 254 _l
580 172 _l
476 172 _l
476 0 _l
378 0 _l
378 172 _l
49 172 _l
49 267 _l
352 729 _l
_cl}_d
/five{{636 0 77 -13 549 729 _sc
108 729 _m
495 729 _l
495 646 _l
198 646 _l
198 467 _l
212 472 227 476 241 478 _c
255 480 270 482 284 482 _c
365 482 429 459 477 415 _c
525 370 549 310 549 234 _c
549 155 524 94 475 51 _c
426 8 357 -13 269 -13 _c
238 -13 207 -10 175 -6 _c
143 -1 111 6 77 17 _c
77 116 _l
106 100 136 88 168 80 _c
199 72 232 69 267 69 _c
}_e{323 69 368 83 401 113 _c
433 143 450 183 450 234 _c
450 284 433 324 401 354 _c
368 384 323 399 267 399 _c
241 399 214 396 188 390 _c
162 384 135 375 108 363 _c
108 729 _l
_cl}_e}_d
/colon{337 0 117 0 220 517 _sc
117 124 _m
220 124 _l
220 0 _l
117 0 _l
117 124 _l
117 517 _m
220 517 _l
220 393 _l
117 393 _l
117 517 _l
_cl}_d
/E{632 0 98 0 568 729 _sc
98 729 _m
559 729 _l
559 646 _l
197 646 _l
197 430 _l
544 430 _l
544 347 _l
197 347 _l
197 83 _l
568 83 _l
568 0 _l
98 0 _l
98 729 _l
_cl}_d
/F{575 0 98 0 517 729 _sc
98 729 _m
517 729 _l
517 646 _l
197 646 _l
197 431 _l
486 431 _l
486 348 _l
197 348 _l
197 0 _l
98 0 _l
98 729 _l
_cl}_d
/M{863 0 98 0 765 729 _sc
98 729 _m
245 729 _l
431 233 _l
618 729 _l
765 729 _l
765 0 _l
669 0 _l
669 640 _l
481 140 _l
382 140 _l
194 640 _l
194 0 _l
98 0 _l
98 729 _l
_cl}_d
/S{{635 0 66 -13 579 742 _sc
535 705 _m
535 609 _l
497 627 462 640 429 649 _c
395 657 363 662 333 662 _c
279 662 237 651 208 631 _c
179 610 165 580 165 542 _c
165 510 174 485 194 469 _c
213 452 250 439 304 429 _c
364 417 _l
437 403 491 378 526 343 _c
561 307 579 260 579 201 _c
579 130 555 77 508 41 _c
460 5 391 -13 300 -13 _c
265 -13 228 -9 189 -2 _c
}_e{150 5 110 16 69 32 _c
69 134 _l
109 111 148 94 186 83 _c
224 71 262 66 300 66 _c
356 66 399 77 430 99 _c
460 121 476 152 476 194 _c
476 230 465 258 443 278 _c
421 298 385 313 335 323 _c
275 335 _l
201 349 148 372 115 404 _c
82 435 66 478 66 534 _c
66 598 88 649 134 686 _c
179 723 242 742 322 742 _c
356 742 390 739 426 733 _c
461 727 497 717 535 705 _c
}_e{_cl}_e}_d
/a{{613 0 60 -13 522 560 _sc
343 275 _m
270 275 220 266 192 250 _c
164 233 150 205 150 165 _c
150 133 160 107 181 89 _c
202 70 231 61 267 61 _c
317 61 357 78 387 114 _c
417 149 432 196 432 255 _c
432 275 _l
343 275 _l
522 312 _m
522 0 _l
432 0 _l
432 83 _l
411 49 385 25 355 10 _c
325 -5 287 -13 243 -13 _c
187 -13 142 2 109 33 _c
76 64 60 106 60 159 _c
}_e{60 220 80 266 122 298 _c
163 329 224 345 306 345 _c
432 345 _l
432 354 _l
432 395 418 427 391 450 _c
364 472 326 484 277 484 _c
245 484 215 480 185 472 _c
155 464 127 453 100 439 _c
100 522 _l
132 534 164 544 195 550 _c
226 556 256 560 286 560 _c
365 560 424 539 463 498 _c
502 457 522 395 522 312 _c
_cl}_e}_d
/d{{635 0 55 -13 544 760 _sc
454 464 _m
454 760 _l
544 760 _l
544 0 _l
454 0 _l
454 82 _l
435 49 411 25 382 10 _c
353 -5 319 -13 279 -13 _c
213 -13 159 13 117 65 _c
75 117 55 187 55 273 _c
55 359 75 428 117 481 _c
159 533 213 560 279 560 _c
319 560 353 552 382 536 _c
411 520 435 496 454 464 _c
148 273 _m
148 207 161 155 188 117 _c
215 79 253 61 301 61 _c
}_e{348 61 385 79 413 117 _c
440 155 454 207 454 273 _c
454 339 440 390 413 428 _c
385 466 348 485 301 485 _c
253 485 215 466 188 428 _c
161 390 148 339 148 273 _c
_cl}_e}_d
/e{{615 0 55 -13 562 560 _sc
562 296 _m
562 252 _l
149 252 _l
153 190 171 142 205 110 _c
238 78 284 62 344 62 _c
378 62 412 66 444 74 _c
476 82 509 95 541 113 _c
541 28 _l
509 14 476 3 442 -3 _c
408 -9 373 -13 339 -13 _c
251 -13 182 12 131 62 _c
80 112 55 181 55 268 _c
55 357 79 428 127 481 _c
175 533 241 560 323 560 _c
397 560 455 536 498 489 _c
}_e{540 441 562 377 562 296 _c
472 322 _m
471 371 457 410 431 440 _c
404 469 368 484 324 484 _c
274 484 234 469 204 441 _c
174 413 156 373 152 322 _c
472 322 _l
_cl}_e}_d
/i{278 0 94 0 184 760 _sc
94 547 _m
184 547 _l
184 0 _l
94 0 _l
94 547 _l
94 760 _m
184 760 _l
184 646 _l
94 646 _l
94 760 _l
_cl}_d
/l{278 0 94 0 184 760 _sc
94 760 _m
184 760 _l
184 0 _l
94 0 _l
94 760 _l
_cl}_d
/n{634 0 91 0 549 560 _sc
549 330 _m
549 0 _l
459 0 _l
459 327 _l
459 379 448 417 428 443 _c
408 469 378 482 338 482 _c
289 482 251 466 223 435 _c
195 404 181 362 181 309 _c
181 0 _l
91 0 _l
91 547 _l
181 547 _l
181 462 _l
202 494 227 519 257 535 _c
286 551 320 560 358 560 _c
420 560 468 540 500 501 _c
532 462 549 405 549 330 _c
_cl}_d
/o{612 0 55 -13 557 560 _sc
306 484 _m
258 484 220 465 192 427 _c
164 389 150 338 150 273 _c
150 207 163 156 191 118 _c
219 80 257 62 306 62 _c
354 62 392 80 420 118 _c
448 156 462 207 462 273 _c
462 337 448 389 420 427 _c
392 465 354 484 306 484 _c
306 560 _m
384 560 445 534 490 484 _c
534 433 557 363 557 273 _c
557 183 534 113 490 63 _c
445 12 384 -13 306 -13 _c
227 -13 165 12 121 63 _c
77 113 55 183 55 273 _c
55 363 77 433 121 484 _c
165 534 227 560 306 560 _c
_cl}_d
/q{{635 0 55 -207 544 560 _sc
148 273 _m
148 207 161 155 188 117 _c
215 79 253 61 301 61 _c
348 61 385 79 413 117 _c
440 155 454 207 454 273 _c
454 339 440 390 413 428 _c
385 466 348 485 301 485 _c
253 485 215 466 188 428 _c
161 390 148 339 148 273 _c
454 82 _m
435 49 411 25 382 10 _c
353 -5 319 -13 279 -13 _c
213 -13 159 13 117 65 _c
75 117 55 187 55 273 _c
}_e{55 359 75 428 117 481 _c
159 533 213 560 279 560 _c
319 560 353 552 382 536 _c
411 520 435 496 454 464 _c
454 547 _l
544 547 _l
544 -207 _l
454 -207 _l
454 82 _l
_cl}_e}_d
/r{411 0 91 0 411 560 _sc
411 463 _m
401 469 390 473 378 476 _c
366 478 353 480 339 480 _c
288 480 249 463 222 430 _c
194 397 181 350 181 288 _c
181 0 _l
91 0 _l
91 547 _l
181 547 _l
181 462 _l
199 495 224 520 254 536 _c
284 552 321 560 365 560 _c
371 560 378 559 386 559 _c
393 558 401 557 411 555 _c
411 463 _l
_cl}_d
/u{634 0 85 -13 543 547 _sc
85 216 _m
85 547 _l
175 547 _l
175 219 _l
175 167 185 129 205 103 _c
225 77 255 64 296 64 _c
344 64 383 79 411 110 _c
439 141 453 183 453 237 _c
453 547 _l
543 547 _l
543 0 _l
453 0 _l
453 84 _l
431 50 405 26 377 10 _c
348 -5 315 -13 277 -13 _c
214 -13 166 6 134 45 _c
101 83 85 140 85 216 _c
_cl}_d
/v{592 0 30 0 562 547 _sc
30 547 _m
125 547 _l
296 88 _l
467 547 _l
562 547 _l
357 0 _l
235 0 _l
30 547 _l
_cl}_d
end readonly def

/BuildGlyph
 {exch begin
 CharStrings exch
 2 copy known not{pop /.notdef}if
 true 3 1 roll get exec
 end}_d

/BuildChar {
 1 index /Encoding get exch get
 1 index /BuildGlyph get exec
}_d

FontName currentdict end definefont pop
%!PS-Adobe-3.0 Resource-Font
%%Title: cmr10
%%Copyright: Copyright (C) 1994, Basil K. Malyshev. All Rights Reserved.012BaKoMa Fonts Collection, Level-B.
%%Creator: Converted from TrueType to type 3 by PPR
25 dict begin
/_d{bind def}bind def
/_m{moveto}_d
/_l{lineto}_d
/_cl{closepath eofill}_d
/_c{curveto}_d
/_sc{7 -1 roll{setcachedevice}{pop pop pop pop pop pop}ifelse}_d
/_e{exec}_d
/FontName /Cmr10 def
/PaintType 0 def
/FontMatrix[.001 0 0 .001 0 0]def
/FontBBox[-44 -250 1009 750]def
/FontType 3 def
/Encoding [ /zero /one /three /five ] def
/FontInfo 10 dict dup begin
/FamilyName (cmr10) def
/FullName (cmr10) def
/Notice (Copyright (C) 1994, Basil K. Malyshev. All Rights Reserved.012BaKoMa Fonts Collection, Level-B. ) def
/Weight (Regular) def
/Version (1.1/12-Nov-94) def
/ItalicAngle 0.0 def
/isFixedPitch false def
/UnderlinePosition -133 def
/UnderlineThickness 20 def
end readonly def
/CharStrings 4 dict dup begin
/zero{{500 0 39 -21 460 666 _sc
250 -21 _m
168 -21 112 12 83 79 _c
53 146 39 226 39 319 _c
39 377 44 431 55 482 _c
65 533 86 576 118 612 _c
149 648 193 666 250 666 _c
294 666 330 655 358 634 _c
386 612 407 585 422 551 _c
436 517 446 480 452 441 _c
457 402 460 361 460 319 _c
460 261 454 208 444 158 _c
433 108 412 65 381 31 _c
350 -3 306 -21 250 -21 _c
250 4 _m
}_e{287 4 315 23 333 61 _c
351 99 362 141 366 187 _c
370 233 373 283 373 335 _c
373 385 370 431 366 473 _c
362 515 351 554 333 588 _c
315 622 287 640 250 640 _c
212 640 184 622 166 588 _c
148 554 136 515 132 473 _c
128 431 126 385 126 335 _c
126 297 126 262 128 230 _c
130 197 135 163 143 128 _c
151 93 163 64 181 40 _c
198 16 221 4 250 4 _c
_cl}_e}_d
/one{500 0 87 0 421 666 _sc
93 0 _m
93 35 _l
176 35 218 45 218 67 _c
218 592 _l
183 575 139 567 87 567 _c
87 602 _l
168 602 230 623 272 666 _c
286 666 _l
288 666 291 665 293 663 _c
295 661 296 659 296 657 _c
296 67 _l
296 45 337 35 421 35 _c
421 0 _l
93 0 _l
_cl}_d
/three{{500 0 42 -21 457 666 _sc
95 77 _m
111 54 132 37 158 26 _c
184 15 213 10 243 10 _c
281 10 309 26 325 59 _c
341 92 350 130 350 172 _c
350 190 348 209 345 228 _c
341 247 335 265 327 281 _c
319 297 308 310 294 320 _c
280 330 262 335 242 335 _c
176 335 _l
170 335 167 338 167 344 _c
167 353 _l
167 358 170 361 176 361 _c
231 365 _l
254 365 273 373 289 391 _c
}_e{305 409 316 430 323 456 _c
330 481 334 505 334 528 _c
334 560 326 586 311 606 _c
296 626 273 637 243 637 _c
217 637 193 632 170 622 _c
147 612 129 598 115 579 _c
116 579 117 580 118 580 _c
119 580 120 580 122 580 _c
137 580 150 574 160 564 _c
170 554 175 541 175 527 _c
175 512 170 499 160 489 _c
150 479 137 474 122 474 _c
107 474 94 479 84 489 _c
}_e{74 499 69 512 69 527 _c
69 555 77 580 95 601 _c
112 622 134 638 161 649 _c
188 660 215 666 243 666 _c
263 666 284 663 307 657 _c
329 651 350 642 368 631 _c
386 619 401 605 413 588 _c
424 570 430 550 430 528 _c
430 500 423 474 411 450 _c
399 426 382 406 360 389 _c
338 371 314 358 288 350 _c
317 344 345 333 371 317 _c
397 301 417 280 433 255 _c
}_e{449 229 457 202 457 173 _c
457 136 446 103 426 73 _c
406 43 379 19 347 3 _c
314 -13 279 -21 243 -21 _c
211 -21 180 -15 149 -3 _c
117 8 92 25 72 49 _c
52 73 42 101 42 135 _c
42 151 47 165 58 176 _c
69 187 83 193 100 193 _c
110 193 120 190 129 185 _c
138 180 145 173 150 164 _c
155 154 158 145 158 135 _c
158 118 152 104 141 93 _c
}_e{129 82 116 77 100 77 _c
95 77 _l
_cl}_e}_d
/five{{500 0 50 -21 449 666 _sc
87 114 _m
93 94 104 76 118 60 _c
132 44 149 32 169 23 _c
188 14 208 10 229 10 _c
277 10 310 28 328 66 _c
346 103 356 148 356 202 _c
356 225 355 244 355 260 _c
354 276 352 291 348 306 _c
342 329 331 349 315 367 _c
299 385 281 394 259 394 _c
236 394 217 390 201 384 _c
185 377 171 369 161 360 _c
151 350 142 341 134 331 _c
}_e{126 321 122 315 120 315 _c
109 315 _l
107 315 104 316 102 318 _c
100 320 99 322 99 324 _c
99 658 _l
99 660 100 661 102 663 _c
104 665 106 666 109 666 _c
112 666 _l
156 644 204 634 255 634 _c
304 634 352 644 398 666 _c
401 666 _l
403 666 405 665 407 663 _c
409 661 410 660 410 658 _c
410 649 _l
410 645 409 644 408 644 _c
385 614 356 590 322 573 _c
}_e{288 556 252 548 216 548 _c
189 548 162 551 134 559 _c
134 370 _l
156 388 175 400 193 408 _c
210 416 232 420 260 420 _c
296 420 329 409 358 388 _c
387 366 409 339 425 305 _c
441 271 449 236 449 201 _c
449 161 439 124 419 90 _c
399 56 373 29 339 9 _c
305 -11 269 -21 229 -21 _c
196 -21 166 -12 138 4 _c
110 20 89 43 73 72 _c
57 100 50 131 50 163 _c
}_e{50 178 54 190 64 200 _c
74 209 86 214 101 214 _c
115 214 128 209 138 199 _c
148 189 153 177 153 163 _c
153 149 148 137 138 127 _c
128 117 115 112 101 112 _c
99 112 96 112 93 112 _c
90 112 88 113 87 114 _c
_cl}_e}_d
end readonly def

/BuildGlyph
 {exch begin
 CharStrings exch
 2 copy known not{pop /.notdef}if
 true 3 1 roll get exec
 end}_d

/BuildChar {
 1 index /Encoding get exch get
 1 index /BuildGlyph get exec
}_d

FontName currentdict end definefont pop
end
%%EndProlog
mpldict begin
33.75 206.1 translate
544.5 379.8 0 0 clipbox
gsave
0 0 m
544.5 0 l
544.5 379.8 l
0 379.8 l
cl
1.000 setgray
fill
grestore
gsave
68.0625 37.98 m
490.05 37.98 l
490.05 341.82 l
68.0625 341.82 l
cl
1.000 setgray
fill
grestore
1.000 setlinewidth
1 setlinejoin
0 setlinecap
[] 0 setdash
1.000 0.000 0.000 setrgbcolor
gsave
422 303.8 68.06 37.98 clipbox
265.683 145.406 m
265.683 150.443 l
stroke
grestore
gsave
422 303.8 68.06 37.98 clipbox
417.578 75.7986 m
417.578 80.9887 l
stroke
grestore
gsave
422 303.8 68.06 37.98 clipbox
-38.1076 194.878 m
stroke
grestore
gsave
422 303.8 68.06 37.98 clipbox
113.787 238.244 m
113.787 277.436 l
stroke
grestore
0.000 0.502 0.000 setrgbcolor
gsave
422 303.8 68.06 37.98 clipbox
417.578 52.3328 m
417.578 64.2401 l
stroke
grestore
gsave
422 303.8 68.06 37.98 clipbox
265.683 112.351 m
265.683 122.508 l
stroke
grestore
gsave
422 303.8 68.06 37.98 clipbox
-38.1076 399.873 m
stroke
grestore
gsave
422 303.8 68.06 37.98 clipbox
113.787 222.582 m
113.787 243.659 l
stroke
grestore
0.000 0.000 1.000 setrgbcolor
gsave
422 303.8 68.06 37.98 clipbox
417.578 47.1092 m
417.578 48.6287 l
stroke
grestore
gsave
422 303.8 68.06 37.98 clipbox
265.683 85.865 m
265.683 93.3715 l
stroke
grestore
gsave
422 303.8 68.06 37.98 clipbox
-38.1076 371.923 m
stroke
grestore
gsave
422 303.8 68.06 37.98 clipbox
113.787 168.113 m
113.787 207.299 l
stroke
grestore
2 setlinecap
gsave
422 303.8 68.06 37.98 clipbox
68.0625 94.3195 m
490.05 94.3195 l
stroke
grestore
0.000 0.502 0.000 setrgbcolor
gsave
422 303.8 68.06 37.98 clipbox
68.0625 120.323 m
490.05 120.323 l
stroke
grestore
1.000 0.000 0.000 setrgbcolor
gsave
422 303.8 68.06 37.98 clipbox
68.0625 154.94 m
490.05 154.94 l
stroke
grestore
0.500 setlinewidth
0 setlinecap
gsave
422 303.8 68.06 37.98 clipbox
/o {
gsave
newpath
translate
0.5 setlinewidth
1 setlinejoin
0 setlinecap
3 -1.83697e-16 m
-3 1.83697e-16 l
gsave
1.000 0.000 0.000 setrgbcolor
fill
grestore
stroke
grestore
} bind def
265.683 145.406 o
417.578 75.7986 o
-1 185.181 o
-1 205.472 o
113.787 238.244 o
grestore
gsave
422 303.8 68.06 37.98 clipbox
/o {
gsave
newpath
translate
0.5 setlinewidth
1 setlinejoin
0 setlinecap
3 -1.83697e-16 m
-3 1.83697e-16 l
gsave
1.000 0.000 0.000 setrgbcolor
fill
grestore
stroke
grestore
} bind def
265.683 150.443 o
417.578 80.9887 o
89.4301 380.8 o
42.3856 380.8 o
113.787 277.436 o
grestore
0.000 setgray
gsave
422 303.8 68.06 37.98 clipbox
/o {
gsave
newpath
translate
0.5 setlinewidth
1 setlinejoin
0 setlinecap
0 -3 m
0.795609 -3 1.55874 -2.6839 2.12132 -2.12132 c
2.6839 -1.55874 3 -0.795609 3 0 c
3 0.795609 2.6839 1.55874 2.12132 2.12132 c
1.55874 2.6839 0.795609 3 0 3 c
-0.795609 3 -1.55874 2.6839 -2.12132 2.12132 c
-2.6839 1.55874 -3 0.795609 -3 0 c
-3 -0.795609 -2.6839 -1.55874 -2.12132 -2.12132 c
-1.55874 -2.6839 -0.795609 -3 0 -3 c
cl
gsave
1.000 0.000 0.000 setrgbcolor
fill
grestore
stroke
grestore
} bind def
265.683 147.925 o
417.578 78.3936 o
-1 324.301 o
-1 324.539 o
113.787 257.84 o
grestore
0.000 0.502 0.000 setrgbcolor
gsave
422 303.8 68.06 37.98 clipbox
/o {
gsave
newpath
translate
0.5 setlinewidth
1 setlinejoin
0 setlinecap
3 -1.83697e-16 m
-3 1.83697e-16 l
gsave
0.000 0.502 0.000 setrgbcolor
fill
grestore
stroke
grestore
} bind def
417.578 52.3328 o
265.683 112.351 o
-1 364.752 o
-1 356.561 o
113.787 222.582 o
grestore
gsave
422 303.8 68.06 37.98 clipbox
/o {
gsave
newpath
translate
0.5 setlinewidth
1 setlinejoin
0 setlinecap
3 -1.83697e-16 m
-3 1.83697e-16 l
gsave
0.000 0.502 0.000 setrgbcolor
fill
grestore
stroke
grestore
} bind def
417.578 64.2401 o
265.683 122.508 o
-1 379.308 o
-1 373.172 o
113.787 243.659 o
grestore
0.000 setgray
gsave
422 303.8 68.06 37.98 clipbox
/o {
gsave
newpath
translate
0.5 setlinewidth
1 setlinejoin
0 setlinecap
0 -3 m
0.795609 -3 1.55874 -2.6839 2.12132 -2.12132 c
2.6839 -1.55874 3 -0.795609 3 0 c
3 0.795609 2.6839 1.55874 2.12132 2.12132 c
1.55874 2.6839 0.795609 3 0 3 c
-0.795609 3 -1.55874 2.6839 -2.12132 2.12132 c
-2.6839 1.55874 -3 0.795609 -3 0 c
-3 -0.795609 -2.6839 -1.55874 -2.12132 -2.12132 c
-1.55874 -2.6839 -0.795609 -3 0 -3 c
cl
gsave
0.000 0.502 0.000 setrgbcolor
fill
grestore
stroke
grestore
} bind def
417.578 58.2865 o
265.683 117.43 o
-1 372.03 o
-1 364.867 o
113.787 233.12 o
grestore
0.000 0.000 1.000 setrgbcolor
gsave
422 303.8 68.06 37.98 clipbox
/o {
gsave
newpath
translate
0.5 setlinewidth
1 setlinejoin
0 setlinecap
3 -1.83697e-16 m
-3 1.83697e-16 l
gsave
0.000 0.000 1.000 setrgbcolor
fill
grestore
stroke
grestore
} bind def
417.578 47.1092 o
265.683 85.865 o
-1 336.982 o
-1 322.133 o
113.787 168.113 o
grestore
gsave
422 303.8 68.06 37.98 clipbox
/o {
gsave
newpath
translate
0.5 setlinewidth
1 setlinejoin
0 setlinecap
3 -1.83697e-16 m
-3 1.83697e-16 l
gsave
0.000 0.000 1.000 setrgbcolor
fill
grestore
stroke
grestore
} bind def
417.578 48.6287 o
265.683 93.3715 o
-1 372.294 o
-1 361.316 o
113.787 207.299 o
grestore
0.000 setgray
gsave
422 303.8 68.06 37.98 clipbox
/o {
gsave
newpath
translate
0.5 setlinewidth
1 setlinejoin
0 setlinecap
0 -3 m
0.795609 -3 1.55874 -2.6839 2.12132 -2.12132 c
2.6839 -1.55874 3 -0.795609 3 0 c
3 0.795609 2.6839 1.55874 2.12132 2.12132 c
1.55874 2.6839 0.795609 3 0 3 c
-0.795609 3 -1.55874 2.6839 -2.12132 2.12132 c
-2.6839 1.55874 -3 0.795609 -3 0 c
-3 -0.795609 -2.6839 -1.55874 -2.12132 -2.12132 c
-1.55874 -2.6839 -0.795609 -3 0 -3 c
cl
gsave
0.000 0.000 1.000 setrgbcolor
fill
grestore
stroke
grestore
} bind def
417.578 47.869 o
265.683 89.6183 o
-1 354.638 o
-1 341.724 o
113.787 187.706 o
grestore
1.000 setlinewidth
0 setlinejoin
2 setlinecap
gsave
68.0625 341.82 m
490.05 341.82 l
stroke
grestore
gsave
490.05 37.98 m
490.05 341.82 l
stroke
grestore
gsave
68.0625 37.98 m
490.05 37.98 l
stroke
grestore
gsave
68.0625 37.98 m
68.0625 341.82 l
stroke
grestore
0.500 setlinewidth
1 setlinejoin
0 setlinecap
gsave
/o {
gsave
newpath
translate
0.5 setlinewidth
1 setlinejoin
0 setlinecap
0 0 m
0 4 l
gsave
0.000 setgray
fill
grestore
stroke
grestore
} bind def
113.787 37.98 o
grestore
gsave
/o {
gsave
newpath
translate
0.5 setlinewidth
1 setlinejoin
0 setlinecap
0 0 m
0 -4 l
gsave
0.000 setgray
fill
grestore
stroke
grestore
} bind def
113.787 341.82 o
grestore
gsave
101.787475 22.480000 translate
0.000000 rotate
/BitstreamVeraSans-Roman findfont
12.0 scalefont
setfont
0.000000 0.465625 moveto
/one glyphshow

7.634766 0.465625 moveto
/zero glyphshow

/BitstreamVeraSans-Roman findfont
8.4 scalefont
setfont
15.269531 6.765625 moveto
/two glyphshow


grestore
gsave
/o {
gsave
newpath
translate
0.5 setlinewidth
1 setlinejoin
0 setlinecap
0 0 m
0 4 l
gsave
0.000 setgray
fill
grestore
stroke
grestore
} bind def
265.683 37.98 o
grestore
gsave
/o {
gsave
newpath
translate
0.5 setlinewidth
1 setlinejoin
0 setlinecap
0 0 m
0 -4 l
gsave
0.000 setgray
fill
grestore
stroke
grestore
} bind def
265.683 341.82 o
grestore
gsave
253.682552 22.480000 translate
0.000000 rotate
/BitstreamVeraSans-Roman findfont
12.0 scalefont
setfont
0.000000 0.465625 moveto
/one glyphshow

7.634766 0.465625 moveto
/zero glyphshow

/BitstreamVeraSans-Roman findfont
8.4 scalefont
setfont
15.269531 6.765625 moveto
/three glyphshow


grestore
gsave
/o {
gsave
newpath
translate
0.5 setlinewidth
1 setlinejoin
0 setlinecap
0 0 m
0 4 l
gsave
0.000 setgray
fill
grestore
stroke
grestore
} bind def
417.578 37.98 o
grestore
gsave
/o {
gsave
newpath
translate
0.5 setlinewidth
1 setlinejoin
0 setlinecap
0 0 m
0 -4 l
gsave
0.000 setgray
fill
grestore
stroke
grestore
} bind def
417.578 341.82 o
grestore
gsave
405.577630 22.480000 translate
0.000000 rotate
/BitstreamVeraSans-Roman findfont
12.0 scalefont
setfont
0.000000 0.575000 moveto
/one glyphshow

7.634766 0.575000 moveto
/zero glyphshow

/BitstreamVeraSans-Roman findfont
8.4 scalefont
setfont
15.269531 6.875000 moveto
/four glyphshow


grestore
gsave
/o {
gsave
newpath
translate
0.5 setlinewidth
1 setlinejoin
0 setlinecap
0 0 m
0 2 l
gsave
0.000 setgray
fill
grestore
stroke
grestore
} bind def
68.0625 37.98 o
grestore
gsave
/o {
gsave
newpath
translate
0.5 setlinewidth
1 setlinejoin
0 setlinecap
0 0 m
0 -2 l
gsave
0.000 setgray
fill
grestore
stroke
grestore
} bind def
68.0625 341.82 o
grestore
gsave
/o {
gsave
newpath
translate
0.5 setlinewidth
1 setlinejoin
0 setlinecap
0 0 m
0 2 l
gsave
0.000 setgray
fill
grestore
stroke
grestore
} bind def
80.0897 37.98 o
grestore
gsave
/o {
gsave
newpath
translate
0.5 setlinewidth
1 setlinejoin
0 setlinecap
0 0 m
0 -2 l
gsave
0.000 setgray
fill
grestore
stroke
grestore
} bind def
80.0897 341.82 o
grestore
gsave
/o {
gsave
newpath
translate
0.5 setlinewidth
1 setlinejoin
0 setlinecap
0 0 m
0 2 l
gsave
0.000 setgray
fill
grestore
stroke
grestore
} bind def
90.2586 37.98 o
grestore
gsave
/o {
gsave
newpath
translate
0.5 setlinewidth
1 setlinejoin
0 setlinecap
0 0 m
0 -2 l
gsave
0.000 setgray
fill
grestore
stroke
grestore
} bind def
90.2586 341.82 o
grestore
gsave
/o {
gsave
newpath
translate
0.5 setlinewidth
1 setlinejoin
0 setlinecap
0 0 m
0 2 l
gsave
0.000 setgray
fill
grestore
stroke
grestore
} bind def
99.0673 37.98 o
grestore
gsave
/o {
gsave
newpath
translate
0.5 setlinewidth
1 setlinejoin
0 setlinecap
0 0 m
0 -2 l
gsave
0.000 setgray
fill
grestore
stroke
grestore
} bind def
99.0673 341.82 o
grestore
gsave
/o {
gsave
newpath
translate
0.5 setlinewidth
1 setlinejoin
0 setlinecap
0 0 m
0 2 l
gsave
0.000 setgray
fill
grestore
stroke
grestore
} bind def
106.837 37.98 o
grestore
gsave
/o {
gsave
newpath
translate
0.5 setlinewidth
1 setlinejoin
0 setlinecap
0 0 m
0 -2 l
gsave
0.000 setgray
fill
grestore
stroke
grestore
} bind def
106.837 341.82 o
grestore
gsave
/o {
gsave
newpath
translate
0.5 setlinewidth
1 setlinejoin
0 setlinecap
0 0 m
0 2 l
gsave
0.000 setgray
fill
grestore
stroke
grestore
} bind def
159.512 37.98 o
grestore
gsave
/o {
gsave
newpath
translate
0.5 setlinewidth
1 setlinejoin
0 setlinecap
0 0 m
0 -2 l
gsave
0.000 setgray
fill
grestore
stroke
grestore
} bind def
159.512 341.82 o
grestore
gsave
/o {
gsave
newpath
translate
0.5 setlinewidth
1 setlinejoin
0 setlinecap
0 0 m
0 2 l
gsave
0.000 setgray
fill
grestore
stroke
grestore
} bind def
186.26 37.98 o
grestore
gsave
/o {
gsave
newpath
translate
0.5 setlinewidth
1 setlinejoin
0 setlinecap
0 0 m
0 -2 l
gsave
0.000 setgray
fill
grestore
stroke
grestore
} bind def
186.26 341.82 o
grestore
gsave
/o {
gsave
newpath
translate
0.5 setlinewidth
1 setlinejoin
0 setlinecap
0 0 m
0 2 l
gsave
0.000 setgray
fill
grestore
stroke
grestore
} bind def
205.237 37.98 o
grestore
gsave
/o {
gsave
newpath
translate
0.5 setlinewidth
1 setlinejoin
0 setlinecap
0 0 m
0 -2 l
gsave
0.000 setgray
fill
grestore
stroke
grestore
} bind def
205.237 341.82 o
grestore
gsave
/o {
gsave
newpath
translate
0.5 setlinewidth
1 setlinejoin
0 setlinecap
0 0 m
0 2 l
gsave
0.000 setgray
fill
grestore
stroke
grestore
} bind def
219.958 37.98 o
grestore
gsave
/o {
gsave
newpath
translate
0.5 setlinewidth
1 setlinejoin
0 setlinecap
0 0 m
0 -2 l
gsave
0.000 setgray
fill
grestore
stroke
grestore
} bind def
219.958 341.82 o
grestore
gsave
/o {
gsave
newpath
translate
0.5 setlinewidth
1 setlinejoin
0 setlinecap
0 0 m
0 2 l
gsave
0.000 setgray
fill
grestore
stroke
grestore
} bind def
231.985 37.98 o
grestore
gsave
/o {
gsave
newpath
translate
0.5 setlinewidth
1 setlinejoin
0 setlinecap
0 0 m
0 -2 l
gsave
0.000 setgray
fill
grestore
stroke
grestore
} bind def
231.985 341.82 o
grestore
gsave
/o {
gsave
newpath
translate
0.5 setlinewidth
1 setlinejoin
0 setlinecap
0 0 m
0 2 l
gsave
0.000 setgray
fill
grestore
stroke
grestore
} bind def
242.154 37.98 o
grestore
gsave
/o {
gsave
newpath
translate
0.5 setlinewidth
1 setlinejoin
0 setlinecap
0 0 m
0 -2 l
gsave
0.000 setgray
fill
grestore
stroke
grestore
} bind def
242.154 341.82 o
grestore
gsave
/o {
gsave
newpath
translate
0.5 setlinewidth
1 setlinejoin
0 setlinecap
0 0 m
0 2 l
gsave
0.000 setgray
fill
grestore
stroke
grestore
} bind def
250.962 37.98 o
grestore
gsave
/o {
gsave
newpath
translate
0.5 setlinewidth
1 setlinejoin
0 setlinecap
0 0 m
0 -2 l
gsave
0.000 setgray
fill
grestore
stroke
grestore
} bind def
250.962 341.82 o
grestore
gsave
/o {
gsave
newpath
translate
0.5 setlinewidth
1 setlinejoin
0 setlinecap
0 0 m
0 2 l
gsave
0.000 setgray
fill
grestore
stroke
grestore
} bind def
258.732 37.98 o
grestore
gsave
/o {
gsave
newpath
translate
0.5 setlinewidth
1 setlinejoin
0 setlinecap
0 0 m
0 -2 l
gsave
0.000 setgray
fill
grestore
stroke
grestore
} bind def
258.732 341.82 o
grestore
gsave
/o {
gsave
newpath
translate
0.5 setlinewidth
1 setlinejoin
0 setlinecap
0 0 m
0 2 l
gsave
0.000 setgray
fill
grestore
stroke
grestore
} bind def
311.408 37.98 o
grestore
gsave
/o {
gsave
newpath
translate
0.5 setlinewidth
1 setlinejoin
0 setlinecap
0 0 m
0 -2 l
gsave
0.000 setgray
fill
grestore
stroke
grestore
} bind def
311.408 341.82 o
grestore
gsave
/o {
gsave
newpath
translate
0.5 setlinewidth
1 setlinejoin
0 setlinecap
0 0 m
0 2 l
gsave
0.000 setgray
fill
grestore
stroke
grestore
} bind def
338.155 37.98 o
grestore
gsave
/o {
gsave
newpath
translate
0.5 setlinewidth
1 setlinejoin
0 setlinecap
0 0 m
0 -2 l
gsave
0.000 setgray
fill
grestore
stroke
grestore
} bind def
338.155 341.82 o
grestore
gsave
/o {
gsave
newpath
translate
0.5 setlinewidth
1 setlinejoin
0 setlinecap
0 0 m
0 2 l
gsave
0.000 setgray
fill
grestore
stroke
grestore
} bind def
357.133 37.98 o
grestore
gsave
/o {
gsave
newpath
translate
0.5 setlinewidth
1 setlinejoin
0 setlinecap
0 0 m
0 -2 l
gsave
0.000 setgray
fill
grestore
stroke
grestore
} bind def
357.133 341.82 o
grestore
gsave
/o {
gsave
newpath
translate
0.5 setlinewidth
1 setlinejoin
0 setlinecap
0 0 m
0 2 l
gsave
0.000 setgray
fill
grestore
stroke
grestore
} bind def
371.853 37.98 o
grestore
gsave
/o {
gsave
newpath
translate
0.5 setlinewidth
1 setlinejoin
0 setlinecap
0 0 m
0 -2 l
gsave
0.000 setgray
fill
grestore
stroke
grestore
} bind def
371.853 341.82 o
grestore
gsave
/o {
gsave
newpath
translate
0.5 setlinewidth
1 setlinejoin
0 setlinecap
0 0 m
0 2 l
gsave
0.000 setgray
fill
grestore
stroke
grestore
} bind def
383.88 37.98 o
grestore
gsave
/o {
gsave
newpath
translate
0.5 setlinewidth
1 setlinejoin
0 setlinecap
0 0 m
0 -2 l
gsave
0.000 setgray
fill
grestore
stroke
grestore
} bind def
383.88 341.82 o
grestore
gsave
/o {
gsave
newpath
translate
0.5 setlinewidth
1 setlinejoin
0 setlinecap
0 0 m
0 2 l
gsave
0.000 setgray
fill
grestore
stroke
grestore
} bind def
394.049 37.98 o
grestore
gsave
/o {
gsave
newpath
translate
0.5 setlinewidth
1 setlinejoin
0 setlinecap
0 0 m
0 -2 l
gsave
0.000 setgray
fill
grestore
stroke
grestore
} bind def
394.049 341.82 o
grestore
gsave
/o {
gsave
newpath
translate
0.5 setlinewidth
1 setlinejoin
0 setlinecap
0 0 m
0 2 l
gsave
0.000 setgray
fill
grestore
stroke
grestore
} bind def
402.857 37.98 o
grestore
gsave
/o {
gsave
newpath
translate
0.5 setlinewidth
1 setlinejoin
0 setlinecap
0 0 m
0 -2 l
gsave
0.000 setgray
fill
grestore
stroke
grestore
} bind def
402.857 341.82 o
grestore
gsave
/o {
gsave
newpath
translate
0.5 setlinewidth
1 setlinejoin
0 setlinecap
0 0 m
0 2 l
gsave
0.000 setgray
fill
grestore
stroke
grestore
} bind def
410.627 37.98 o
grestore
gsave
/o {
gsave
newpath
translate
0.5 setlinewidth
1 setlinejoin
0 setlinecap
0 0 m
0 -2 l
gsave
0.000 setgray
fill
grestore
stroke
grestore
} bind def
410.627 341.82 o
grestore
gsave
/o {
gsave
newpath
translate
0.5 setlinewidth
1 setlinejoin
0 setlinecap
0 0 m
0 2 l
gsave
0.000 setgray
fill
grestore
stroke
grestore
} bind def
463.303 37.98 o
grestore
gsave
/o {
gsave
newpath
translate
0.5 setlinewidth
1 setlinejoin
0 setlinecap
0 0 m
0 -2 l
gsave
0.000 setgray
fill
grestore
stroke
grestore
} bind def
463.303 341.82 o
grestore
gsave
/o {
gsave
newpath
translate
0.5 setlinewidth
1 setlinejoin
0 setlinecap
0 0 m
0 2 l
gsave
0.000 setgray
fill
grestore
stroke
grestore
} bind def
490.05 37.98 o
grestore
gsave
/o {
gsave
newpath
translate
0.5 setlinewidth
1 setlinejoin
0 setlinecap
0 0 m
0 -2 l
gsave
0.000 setgray
fill
grestore
stroke
grestore
} bind def
490.05 341.82 o
grestore
gsave
255.056250 5.855000 translate
0.000000 rotate
/Cmmi10 findfont
12.0 scalefont
setfont
0.000000 0.875000 moveto
/m glyphshow

/BitstreamVeraSans-Roman findfont
12.0 scalefont
setfont
10.535156 0.875000 moveto
/space glyphshow

14.349609 0.875000 moveto
/v glyphshow

21.451172 0.875000 moveto
/a glyphshow

28.804688 0.875000 moveto
/l glyphshow

32.138672 0.875000 moveto
/u glyphshow

39.744141 0.875000 moveto
/e glyphshow


grestore
gsave
/o {
gsave
newpath
translate
0.5 setlinewidth
1 setlinejoin
0 setlinecap
0 0 m
4 0 l
gsave
0.000 setgray
fill
grestore
stroke
grestore
} bind def
68.0625 37.98 o
grestore
gsave
/o {
gsave
newpath
translate
0.5 setlinewidth
1 setlinejoin
0 setlinecap
0 0 m
-4 0 l
gsave
0.000 setgray
fill
grestore
stroke
grestore
} bind def
490.05 37.98 o
grestore
/BitstreamVeraSans-Roman findfont
12.000 scalefont
setfont
gsave
38.921875 34.667500 translate
0.000000 rotate
0.000000 0.000000 m /zero glyphshow
7.634766 0.000000 m /period glyphshow
11.449219 0.000000 m /zero glyphshow
19.083984 0.000000 m /zero glyphshow
grestore
gsave
/o {
gsave
newpath
translate
0.5 setlinewidth
1 setlinejoin
0 setlinecap
0 0 m
4 0 l
gsave
0.000 setgray
fill
grestore
stroke
grestore
} bind def
68.0625 113.94 o
grestore
gsave
/o {
gsave
newpath
translate
0.5 setlinewidth
1 setlinejoin
0 setlinecap
0 0 m
-4 0 l
gsave
0.000 setgray
fill
grestore
stroke
grestore
} bind def
490.05 113.94 o
grestore
gsave
39.171875 110.627500 translate
0.000000 rotate
0.000000 0.000000 m /zero glyphshow
7.634766 0.000000 m /period glyphshow
11.449219 0.000000 m /zero glyphshow
19.083984 0.000000 m /five glyphshow
grestore
gsave
/o {
gsave
newpath
translate
0.5 setlinewidth
1 setlinejoin
0 setlinecap
0 0 m
4 0 l
gsave
0.000 setgray
fill
grestore
stroke
grestore
} bind def
68.0625 189.9 o
grestore
gsave
/o {
gsave
newpath
translate
0.5 setlinewidth
1 setlinejoin
0 setlinecap
0 0 m
-4 0 l
gsave
0.000 setgray
fill
grestore
stroke
grestore
} bind def
490.05 189.9 o
grestore
gsave
38.921875 186.587500 translate
0.000000 rotate
0.000000 0.000000 m /zero glyphshow
7.634766 0.000000 m /period glyphshow
11.449219 0.000000 m /one glyphshow
19.083984 0.000000 m /zero glyphshow
grestore
gsave
/o {
gsave
newpath
translate
0.5 setlinewidth
1 setlinejoin
0 setlinecap
0 0 m
4 0 l
gsave
0.000 setgray
fill
grestore
stroke
grestore
} bind def
68.0625 265.86 o
grestore
gsave
/o {
gsave
newpath
translate
0.5 setlinewidth
1 setlinejoin
0 setlinecap
0 0 m
-4 0 l
gsave
0.000 setgray
fill
grestore
stroke
grestore
} bind def
490.05 265.86 o
grestore
gsave
39.171875 262.547500 translate
0.000000 rotate
0.000000 0.000000 m /zero glyphshow
7.634766 0.000000 m /period glyphshow
11.449219 0.000000 m /one glyphshow
19.083984 0.000000 m /five glyphshow
grestore
gsave
/o {
gsave
newpath
translate
0.5 setlinewidth
1 setlinejoin
0 setlinecap
0 0 m
4 0 l
gsave
0.000 setgray
fill
grestore
stroke
grestore
} bind def
68.0625 341.82 o
grestore
gsave
/o {
gsave
newpath
translate
0.5 setlinewidth
1 setlinejoin
0 setlinecap
0 0 m
-4 0 l
gsave
0.000 setgray
fill
grestore
stroke
grestore
} bind def
490.05 341.82 o
grestore
gsave
38.921875 338.507500 translate
0.000000 rotate
0.000000 0.000000 m /zero glyphshow
7.634766 0.000000 m /period glyphshow
11.449219 0.000000 m /two glyphshow
19.083984 0.000000 m /zero glyphshow
grestore
gsave
31.421875 130.150000 translate
90.000000 rotate
0.000000 0.000000 m /M glyphshow
10.353516 0.000000 m /e glyphshow
17.736328 0.000000 m /a glyphshow
25.089844 0.000000 m /n glyphshow
32.695312 0.000000 m /space glyphshow
36.509766 0.000000 m /S glyphshow
44.126953 0.000000 m /q glyphshow
51.744141 0.000000 m /u glyphshow
59.349609 0.000000 m /a glyphshow
66.703125 0.000000 m /r glyphshow
71.386719 0.000000 m /e glyphshow
78.769531 0.000000 m /d glyphshow
86.386719 0.000000 m /space glyphshow
90.201172 0.000000 m /E glyphshow
97.783203 0.000000 m /r glyphshow
102.466797 0.000000 m /r glyphshow
107.150391 0.000000 m /o glyphshow
114.492188 0.000000 m /r glyphshow
grestore
1.000 setlinewidth
0 setlinejoin
gsave
362.01 268.059 m
482.85 268.059 l
482.85 334.62 l
362.01 334.62 l
cl
gsave
1.000 setgray
fill
grestore
stroke
grestore
1 setlinejoin
1.000 0.000 0.000 setrgbcolor
gsave
372.09 316.059 m
372.09 330.459 l
stroke
grestore
gsave
392.25 316.059 m
392.25 330.459 l
stroke
grestore
0.500 setlinewidth
gsave
/o {
gsave
newpath
translate
0.5 setlinewidth
1 setlinejoin
0 setlinecap
3 -1.83697e-16 m
-3 1.83697e-16 l
gsave
1.000 0.000 0.000 setrgbcolor
fill
grestore
stroke
grestore
} bind def
372.09 316.059 o
392.25 316.059 o
grestore
gsave
/o {
gsave
newpath
translate
0.5 setlinewidth
1 setlinejoin
0 setlinecap
3 -1.83697e-16 m
-3 1.83697e-16 l
gsave
1.000 0.000 0.000 setrgbcolor
fill
grestore
stroke
grestore
} bind def
372.09 330.459 o
392.25 330.459 o
grestore
0.000 setgray
gsave
/o {
gsave
newpath
translate
0.5 setlinewidth
1 setlinejoin
0 setlinecap
0 -3 m
0.795609 -3 1.55874 -2.6839 2.12132 -2.12132 c
2.6839 -1.55874 3 -0.795609 3 0 c
3 0.795609 2.6839 1.55874 2.12132 2.12132 c
1.55874 2.6839 0.795609 3 0 3 c
-0.795609 3 -1.55874 2.6839 -2.12132 2.12132 c
-2.6839 1.55874 -3 0.795609 -3 0 c
-3 -0.795609 -2.6839 -1.55874 -2.12132 -2.12132 c
-1.55874 -2.6839 -0.795609 -3 0 -3 c
cl
gsave
1.000 0.000 0.000 setrgbcolor
fill
grestore
stroke
grestore
} bind def
372.09 323.259 o
392.25 323.259 o
grestore
gsave
408.090000 318.219375 translate
0.000000 rotate
/BitstreamVeraSans-Roman findfont
14.4 scalefont
setfont
0.000000 0.359375 moveto
/F glyphshow

8.277420 0.359375 moveto
/a glyphshow

17.095886 0.359375 moveto
/n glyphshow

26.216507 0.359375 moveto
/hyphen glyphshow

31.409210 0.359375 moveto
/i glyphshow

35.407379 0.359375 moveto
/n glyphshow

44.528000 0.359375 moveto
/colon glyphshow

49.376404 0.359375 moveto
/space glyphshow

/Cmr10 findfont
14.4 scalefont
setfont
53.950760 0.359375 moveto
/one glyphshow

61.146072 0.359375 moveto
/zero glyphshow


grestore
1.000 setlinewidth
0.000 0.502 0.000 setrgbcolor
gsave
372.09 295.312 m
372.09 309.712 l
stroke
grestore
gsave
392.25 295.312 m
392.25 309.712 l
stroke
grestore
0.500 setlinewidth
gsave
/o {
gsave
newpath
translate
0.5 setlinewidth
1 setlinejoin
0 setlinecap
3 -1.83697e-16 m
-3 1.83697e-16 l
gsave
0.000 0.502 0.000 setrgbcolor
fill
grestore
stroke
grestore
} bind def
372.09 295.312 o
392.25 295.312 o
grestore
gsave
/o {
gsave
newpath
translate
0.5 setlinewidth
1 setlinejoin
0 setlinecap
3 -1.83697e-16 m
-3 1.83697e-16 l
gsave
0.000 0.502 0.000 setrgbcolor
fill
grestore
stroke
grestore
} bind def
372.09 309.712 o
392.25 309.712 o
grestore
0.000 setgray
gsave
/o {
gsave
newpath
translate
0.5 setlinewidth
1 setlinejoin
0 setlinecap
0 -3 m
0.795609 -3 1.55874 -2.6839 2.12132 -2.12132 c
2.6839 -1.55874 3 -0.795609 3 0 c
3 0.795609 2.6839 1.55874 2.12132 2.12132 c
1.55874 2.6839 0.795609 3 0 3 c
-0.795609 3 -1.55874 2.6839 -2.12132 2.12132 c
-2.6839 1.55874 -3 0.795609 -3 0 c
-3 -0.795609 -2.6839 -1.55874 -2.12132 -2.12132 c
-1.55874 -2.6839 -0.795609 -3 0 -3 c
cl
gsave
0.000 0.502 0.000 setrgbcolor
fill
grestore
stroke
grestore
} bind def
372.09 302.512 o
392.25 302.512 o
grestore
gsave
408.090000 297.472500 translate
0.000000 rotate
/BitstreamVeraSans-Roman findfont
14.4 scalefont
setfont
0.000000 0.359375 moveto
/F glyphshow

8.277420 0.359375 moveto
/a glyphshow

17.095886 0.359375 moveto
/n glyphshow

26.216507 0.359375 moveto
/hyphen glyphshow

31.409210 0.359375 moveto
/i glyphshow

35.407379 0.359375 moveto
/n glyphshow

44.528000 0.359375 moveto
/colon glyphshow

49.376404 0.359375 moveto
/space glyphshow

/Cmr10 findfont
14.4 scalefont
setfont
53.950760 0.359375 moveto
/five glyphshow


grestore
1.000 setlinewidth
0.000 0.000 1.000 setrgbcolor
gsave
372.09 274.566 m
372.09 288.966 l
stroke
grestore
gsave
392.25 274.566 m
392.25 288.966 l
stroke
grestore
0.500 setlinewidth
gsave
/o {
gsave
newpath
translate
0.5 setlinewidth
1 setlinejoin
0 setlinecap
3 -1.83697e-16 m
-3 1.83697e-16 l
gsave
0.000 0.000 1.000 setrgbcolor
fill
grestore
stroke
grestore
} bind def
372.09 274.566 o
392.25 274.566 o
grestore
gsave
/o {
gsave
newpath
translate
0.5 setlinewidth
1 setlinejoin
0 setlinecap
3 -1.83697e-16 m
-3 1.83697e-16 l
gsave
0.000 0.000 1.000 setrgbcolor
fill
grestore
stroke
grestore
} bind def
372.09 288.966 o
392.25 288.966 o
grestore
0.000 setgray
gsave
/o {
gsave
newpath
translate
0.5 setlinewidth
1 setlinejoin
0 setlinecap
0 -3 m
0.795609 -3 1.55874 -2.6839 2.12132 -2.12132 c
2.6839 -1.55874 3 -0.795609 3 0 c
3 0.795609 2.6839 1.55874 2.12132 2.12132 c
1.55874 2.6839 0.795609 3 0 3 c
-0.795609 3 -1.55874 2.6839 -2.12132 2.12132 c
-2.6839 1.55874 -3 0.795609 -3 0 c
-3 -0.795609 -2.6839 -1.55874 -2.12132 -2.12132 c
-1.55874 -2.6839 -0.795609 -3 0 -3 c
cl
gsave
0.000 0.000 1.000 setrgbcolor
fill
grestore
stroke
grestore
} bind def
372.09 281.766 o
392.25 281.766 o
grestore
gsave
408.090000 276.725625 translate
0.000000 rotate
/BitstreamVeraSans-Roman findfont
14.4 scalefont
setfont
0.000000 0.359375 moveto
/F glyphshow

8.277420 0.359375 moveto
/a glyphshow

17.095886 0.359375 moveto
/n glyphshow

26.216507 0.359375 moveto
/hyphen glyphshow

31.409210 0.359375 moveto
/i glyphshow

35.407379 0.359375 moveto
/n glyphshow

44.528000 0.359375 moveto
/colon glyphshow

49.376404 0.359375 moveto
/space glyphshow

/Cmr10 findfont
14.4 scalefont
setfont
53.950760 0.359375 moveto
/three glyphshow


grestore

end
showpage
